submitter_id,alcohol_drinks_per_week,alcohol_volume_per_drink,beer_drinks_per_week,beer_volume_per_drink,cigarettes_per_day,is_alcohol_drinking,is_medicine_used,is_tobacco_smoking,type_of_medicine_used,type_of_alcohol_used
VN_01_00_0161,0,20,0,330,0,FALSE,TRUE,TRUE,Vitamin,NA
VN_01_01_0821,0,20,0,330,0,FALSE,TRUE,TRUE,nexium,NA
VN_01_01_0915,6,20,6,330,10,TRUE,FALSE,TRUE,,2
VN_01_00_0660,0,20,0,330,0,FALSE,TRUE,TRUE,canxi,NA
VN_01_01_0657,0,20,0,330,20,FALSE,FALSE,TRUE,,NA
VN_01_00_0056,0,20,0,330,0,FALSE,FALSE,TRUE,,NA
VN_01_00_0041,0,20,0,330,0,FALSE,FALSE,TRUE,,NA
VN_01_00_0095,0,20,0,330,0,FALSE,TRUE,TRUE,Thuốc điều trị viêm gan B,NA
VN_01_00_0604,0,20,0,330,0,FALSE,FALSE,TRUE,,NA
VN_01_01_0603,3,20,3,330,0,TRUE,TRUE,TRUE,Bổ xương khớp,2
VN_01_01_0607,10,20,20,330,0,TRUE,FALSE,TRUE,,2
VN_01_00_0494,0,20,0,330,0,FALSE,FALSE,TRUE,,NA
VN_01_00_0082,0,20,0,330,0,FALSE,FALSE,TRUE,,NA
VN_01_00_0068,0,20,0,330,0,FALSE,FALSE,TRUE,,NA
VN_01_00_0063,0,20,0,330,0,FALSE,TRUE,TRUE,nội tiết- mãn kinh, khớp thoái hóa
VN_01_00_0069,0,20,0,330,0,FALSE,FALSE,TRUE,,NA
VN_01_00_0077,0,20,0,330,0,FALSE,FALSE,TRUE,,NA
VN_01_01_0165,10,20,10,330,0,TRUE,FALSE,TRUE,,2
VN_01_01_0084,3,20,2,330,0,TRUE,FALSE,TRUE,,2
VN_01_00_0089,0,20,0,330,0,FALSE,FALSE,TRUE,,NA
VN_01_01_1107,0,20,0,330,3,FALSE,FALSE,TRUE,,NA
VN_01_00_0152,0,20,0,330,0,FALSE,FALSE,TRUE,,NA
VN_01_01_1085,0,20,5,330,0,TRUE,FALSE,TRUE,,1
VN_01_01_0014,0,20,0,330,0,FALSE,FALSE,TRUE,,NA
VN_01_01_0045,0,20,2,330,0,TRUE,FALSE,TRUE,,1
VN_01_00_0027,0,20,0,330,0,FALSE,FALSE,TRUE,,NA
VN_01_01_1083,4,20,2,330,4,TRUE,FALSE,TRUE,,2
VN_01_01_0018,3,20,3,330,2,TRUE,FALSE,TRUE,,2
VN_01_00_0129,0,20,0,330,0,FALSE,TRUE,TRUE,Vitamin,NA
VN_01_01_0003,0,20,0,330,0,FALSE,FALSE,FALSE,,NA
VN_01_00_0062,0,20,0,330,0,FALSE,FALSE,TRUE,,NA
VN_01_01_0033,0,20,0,330,0,FALSE,FALSE,TRUE,,NA
VN_01_00_0815,0,20,0,330,0,FALSE,FALSE,TRUE,,NA
VN_01_00_0823,0,20,0,330,0,FALSE,FALSE,TRUE,,NA
VN_01_00_0814,0,20,0,330,0,FALSE,FALSE,TRUE,,NA
VN_01_00_0811,0,20,0,330,0,FALSE,FALSE,TRUE,,NA
VN_01_00_0816,0,20,0,330,0,FALSE,TRUE,TRUE,vitamin,NA
VN_01_00_0818,0,20,0,330,0,FALSE,FALSE,TRUE,,NA
VN_01_00_0810,0,20,0,330,0,FALSE,FALSE,TRUE,,NA
VN_01_00_0822,0,20,0,330,0,FALSE,FALSE,TRUE,,NA
VN_01_00_0813,0,20,0,330,0,FALSE,FALSE,TRUE,,NA
VN_01_01_0820,2,20,2,330,0,TRUE,FALSE,TRUE,,2
VN_01_01_0819,4,20,4,330,0,TRUE,FALSE,TRUE,,2
VN_01_01_0044,0,20,0,330,0,FALSE,FALSE,TRUE,,NA
VN_01_00_0128,0,20,0,330,0,FALSE,FALSE,TRUE,,NA
VN_01_00_0658,0,20,0,330,0,FALSE,FALSE,TRUE,,NA
VN_01_00_0661,0,20,0,330,0,FALSE,FALSE,TRUE,,NA
VN_01_01_0049,0,20,5,330,0,TRUE,FALSE,TRUE,,1
VN_01_00_0078,0,20,0,330,0,FALSE,FALSE,TRUE,,NA
VN_01_00_0080,0,20,0,330,0,FALSE,FALSE,TRUE,,NA
VN_01_00_0017,0,20,0,330,0,FALSE,FALSE,TRUE,,NA
VN_01_01_0002,1,20,1,330,0,TRUE,TRUE,TRUE,vitamin C,2
VN_01_01_0074,0,20,0,330,0,FALSE,TRUE,TRUE,Vitamin tổng hợp,NA
VN_01_00_0079,0,20,0,330,0,FALSE,TRUE,TRUE,Canxi-Vitamin,NA
VN_01_01_0040,0,20,0,330,0,FALSE,FALSE,TRUE,,NA
VN_01_01_0076,0,20,10,330,3,TRUE,FALSE,TRUE,,1
VN_01_00_0071,0,20,0,330,0,FALSE,FALSE,TRUE,,NA
VN_01_00_0001,0,20,1,330,0,TRUE,TRUE,TRUE,nexium,1
VN_01_01_0006,0,20,0,330,0,FALSE,FALSE,TRUE,,NA
VN_01_01_0057,0,20,0,330,0,FALSE,FALSE,TRUE,,NA
VN_01_00_0151,0,20,0,330,0,FALSE,FALSE,TRUE,,NA
VN_01_00_0031,0,20,0,330,0,FALSE,FALSE,TRUE,,NA
VN_01_00_0149,0,20,0,330,0,FALSE,FALSE,TRUE,,NA
VN_01_00_0072,0,20,0,330,0,FALSE,FALSE,TRUE,,NA
VN_01_00_0809,0,20,0,330,0,FALSE,FALSE,TRUE,,NA
VN_01_01_0919,3,20,3,330,3,TRUE,FALSE,TRUE,,2
VN_01_00_0330,0,20,0,330,0,FALSE,FALSE,TRUE,,NA
VN_01_00_0841,0,20,0,330,0,FALSE,FALSE,TRUE,,NA
VN_01_00_0025,0,20,0,330,0,FALSE,FALSE,TRUE,,NA
VN_01_00_0296,0,20,0,330,0,FALSE,FALSE,TRUE,,NA
VN_01_00_0005,0,20,1,330,0,TRUE,FALSE,TRUE,,1
VN_01_01_1087,0,20,0,330,0,FALSE,FALSE,TRUE,,NA
VN_01_00_0029,0,20,0,330,0,FALSE,FALSE,TRUE,,NA
VN_01_00_0016,0,20,0,330,0,FALSE,FALSE,TRUE,,NA
VN_01_00_0087,0,20,0,330,0,FALSE,FALSE,TRUE,,NA
VN_01_00_0130,0,20,0,330,0,FALSE,TRUE,TRUE,Canxi,NA
VN_01_00_0064,0,20,0,330,0,FALSE,FALSE,TRUE,,NA
VN_01_01_1056,0,20,0,330,0,FALSE,FALSE,TRUE,,NA
VN_01_00_0677,0,20,0,330,0,FALSE,FALSE,TRUE,,NA
VN_01_01_0218,0,20,5,330,1,TRUE,FALSE,TRUE,,1
VN_01_00_0335,0,20,0,330,0,FALSE,FALSE,TRUE,,NA
VN_01_00_0183,0,20,0,330,0,FALSE,TRUE,TRUE,Không nhớ tên,NA
VN_01_00_0303,0,20,0,330,0,FALSE,FALSE,TRUE,,NA
VN_01_00_0327,0,20,0,330,0,FALSE,TRUE,TRUE,Vitamin,NA
VN_01_00_0308,0,20,0,330,0,FALSE,FALSE,TRUE,,NA
VN_01_00_0321,0,20,0,330,0,FALSE,FALSE,TRUE,,NA
VN_01_00_0299,0,20,0,330,0,FALSE,FALSE,TRUE,,NA
VN_01_01_0026,0,20,0,330,0,FALSE,FALSE,TRUE,,NA
VN_01_00_0066,0,20,0,330,0,FALSE,FALSE,TRUE,,NA
VN_01_01_1025,1,20,1,330,0,TRUE,FALSE,TRUE,,2
VN_01_00_0206,0,20,0,330,0,FALSE,FALSE,TRUE,,NA
VN_01_01_0154,7,20,0,330,0,TRUE,FALSE,TRUE,,0
VN_01_00_0094,0,20,0,330,0,FALSE,FALSE,TRUE,,NA
VN_01_01_1044,0,20,0,330,0,FALSE,FALSE,TRUE,,NA
VN_01_00_0838,0,20,0,330,0,FALSE,FALSE,TRUE,,NA
VN_01_00_0837,0,20,0,330,0,FALSE,FALSE,TRUE,,NA
VN_01_00_0830,0,20,0,330,0,FALSE,FALSE,TRUE,,NA
VN_01_00_0843,0,20,0,330,0,FALSE,FALSE,TRUE,,NA
VN_01_00_0839,0,20,0,330,0,FALSE,FALSE,TRUE,,NA
VN_01_00_0833,0,20,0,330,0,FALSE,FALSE,TRUE,,NA
VN_01_00_0829,0,20,0,330,0,FALSE,FALSE,TRUE,,NA
VN_01_00_0842,0,20,0,330,0,FALSE,TRUE,TRUE,procare dimond,NA
VN_01_00_0840,0,20,0,330,0,FALSE,FALSE,TRUE,,NA
VN_01_00_0055,0,20,0,330,0,FALSE,FALSE,TRUE,,NA
VN_01_01_1086,0,20,0,330,6,FALSE,FALSE,TRUE,,NA
VN_01_00_0067,0,20,0,330,0,FALSE,FALSE,TRUE,,NA
VN_01_00_0028,0,20,0,330,0,FALSE,FALSE,TRUE,,NA
VN_01_00_0024,0,20,0,330,0,FALSE,FALSE,TRUE,,NA
VN_01_00_0010,0,20,0,330,0,FALSE,FALSE,TRUE,,NA
VN_01_01_0691,0,20,0,330,3,FALSE,TRUE,TRUE,Vitamin b1,NA
VN_01_01_1108,0,20,0,330,5,FALSE,FALSE,TRUE,,NA
VN_01_00_0655,0,20,0,330,0,FALSE,FALSE,TRUE,,NA
VN_01_00_0083,0,20,0,330,0,FALSE,FALSE,TRUE,,NA
VN_01_00_0158,0,20,0,330,0,FALSE,TRUE,TRUE,Thuốc điều trị viêm gan B,NA
VN_01_00_0021,0,20,0,330,0,FALSE,FALSE,TRUE,,NA
VN_03_01_0717,0,20,1,330,0,TRUE,FALSE,TRUE,,1
VN_03_01_0126,0,20,10,330,7,TRUE,FALSE,TRUE,,1
VN_03_00_0125,0,20,0,330,0,FALSE,FALSE,TRUE,,NA
VN_03_00_0727,0,20,0,330,0,FALSE,FALSE,TRUE,,NA
VN_03_00_0728,0,20,0,330,0,FALSE,FALSE,TRUE,,NA
VN_01_01_1068,0,20,0,330,0,FALSE,FALSE,FALSE,,NA
VN_01_00_0153,0,20,0,330,0,FALSE,FALSE,TRUE,,NA
VN_01_00_0413,0,20,0,330,0,FALSE,TRUE,TRUE,Bảo Xuân,NA
VN_01_01_0100,2,20,2,330,0,TRUE,FALSE,TRUE,,2
VN_01_00_0219,0,20,0,330,0,FALSE,FALSE,TRUE,,NA
VN_01_00_0306,0,20,0,330,0,FALSE,FALSE,TRUE,,NA
VN_01_01_1102,0,20,0,330,0,FALSE,TRUE,TRUE,bilaxten,NA
VN_01_00_0081,0,20,0,330,0,FALSE,FALSE,TRUE,,NA
VN_01_00_0065,0,20,0,330,0,FALSE,FALSE,TRUE,,NA
VN_01_00_0085,0,20,0,330,0,FALSE,FALSE,TRUE,,NA
VN_01_01_0965,0,20,0,330,15,FALSE,FALSE,TRUE,,NA
VN_01_00_0817,0,20,0,330,0,FALSE,FALSE,TRUE,,NA
VN_01_00_0098,0,20,0,330,0,FALSE,FALSE,TRUE,,NA
VN_01_01_1082,10,20,10,330,0,TRUE,FALSE,TRUE,,2
VN_01_00_0188,0,20,0,330,0,FALSE,TRUE,TRUE,Canxi và sắt,NA
VN_01_01_0493,0,20,0,330,0,FALSE,FALSE,TRUE,,NA
VN_01_01_0227,0,20,0,330,0,FALSE,FALSE,TRUE,,NA
VN_01_01_0688,0,20,0,330,0,FALSE,TRUE,TRUE,Kháng sinh chữa viêm họng,NA
VN_01_01_1080,10,20,10,330,0,TRUE,FALSE,TRUE,,2
VN_01_01_1081,2,20,2,330,0,TRUE,FALSE,TRUE,,2
VN_01_00_1032,0,20,0,330,0,FALSE,FALSE,TRUE,,NA
VN_01_00_0812,0,20,0,330,0,FALSE,FALSE,TRUE,,NA
VN_01_01_0096,0,20,1,330,0,TRUE,FALSE,TRUE,,1
VN_01_01_1017,0,20,0,330,0,FALSE,FALSE,TRUE,,NA
VN_01_00_0070,0,20,0,330,0,FALSE,FALSE,TRUE,,NA
VN_01_00_0163,0,20,0,330,0,FALSE,FALSE,TRUE,,NA
VN_01_01_1105,0,20,0,330,0,FALSE,FALSE,FALSE,,NA
VN_01_01_0967,0,20,0,330,0,FALSE,FALSE,TRUE,,NA
VN_01_00_0060,0,20,0,330,0,FALSE,TRUE,TRUE,Thuốc tránh thai,NA
VN_01_01_1106,0,20,0,330,0,FALSE,FALSE,FALSE,,NA
VN_01_00_0156,0,20,0,330,0,FALSE,FALSE,TRUE,,NA
VN_01_01_1057,4,20,0,330,10,TRUE,FALSE,TRUE,,0
VN_01_01_0912,0,20,12,330,0,TRUE,FALSE,TRUE,,1
VN_01_01_0968,0,20,7,330,0,TRUE,FALSE,TRUE,,1
VN_01_00_0011,0,20,0,330,0,FALSE,FALSE,TRUE,,NA
VN_01_00_0059,0,20,0,330,0,FALSE,FALSE,TRUE,,NA
VN_01_01_1037,0,20,0,330,0,FALSE,FALSE,TRUE,,NA
VN_01_00_0022,0,20,0,330,0,FALSE,FALSE,TRUE,,NA
VN_01_01_1048,0,20,0,330,0,FALSE,FALSE,TRUE,,NA
VN_01_01_1013,0,20,0,330,5,FALSE,FALSE,TRUE,,NA
VN_01_01_0974,0,20,0,330,0,FALSE,FALSE,TRUE,,NA
VN_01_00_0676,0,20,0,330,0,FALSE,FALSE,TRUE,,NA
VN_01_00_0023,0,20,0,330,0,FALSE,FALSE,TRUE,,NA
VN_01_01_0004,0,20,0,330,0,FALSE,FALSE,TRUE,,NA
VN_01_01_0047,0,20,0,330,0,FALSE,FALSE,TRUE,,NA
VN_01_01_0039,0,20,0,330,0,FALSE,FALSE,TRUE,,NA
VN_01_01_0052,0,20,0,330,0,FALSE,FALSE,TRUE,,NA
VN_01_01_0053,0,20,0,330,0,FALSE,FALSE,TRUE,,NA
VN_01_00_0020,0,20,0,330,0,FALSE,FALSE,TRUE,,NA
VN_01_00_0305,0,20,0,330,0,FALSE,FALSE,TRUE,,NA
VN_01_01_0127,0,20,0,330,0,FALSE,FALSE,TRUE,,NA
VN_01_00_0338,0,20,0,330,0,FALSE,FALSE,TRUE,,NA
VN_01_00_0332,0,20,0,330,0,FALSE,FALSE,TRUE,,NA
VN_01_01_0333,1,20,2,330,0,TRUE,FALSE,TRUE,,2
VN_01_00_0329,0,20,0,330,0,FALSE,FALSE,TRUE,,NA
VN_01_00_0097,0,20,0,330,0,FALSE,FALSE,TRUE,,NA
VN_01_01_0310,0,20,0,330,0,FALSE,FALSE,TRUE,,NA
VN_01_01_0297,0,20,1,330,0,TRUE,TRUE,TRUE,Không nhớ tên,1
VN_01_01_0145,0,20,0,330,0,FALSE,FALSE,TRUE,,NA
VN_01_00_0036,0,20,0,330,0,FALSE,FALSE,TRUE,,NA
VN_01_01_1043,0,20,0,330,0,FALSE,FALSE,TRUE,,NA
VN_01_01_0038,10,20,5,330,0,TRUE,FALSE,TRUE,,2
VN_01_00_0322,0,20,0,330,0,FALSE,FALSE,TRUE,,NA
VN_01_00_0086,0,20,0,330,0,FALSE,FALSE,TRUE,,NA
VN_01_01_0054,0,20,2,330,0,TRUE,FALSE,TRUE,,1
VN_01_00_0325,0,20,0,330,0,FALSE,FALSE,TRUE,,NA
VN_01_01_1038,0,20,0,330,0,FALSE,FALSE,TRUE,,NA
VN_01_00_0034,0,20,0,330,0,FALSE,FALSE,TRUE,,NA
VN_01_01_1015,0,20,0,330,0,FALSE,FALSE,TRUE,,NA
VN_01_00_0318,0,20,0,330,0,FALSE,FALSE,TRUE,,NA
VN_01_00_0019,0,20,0,330,0,FALSE,FALSE,TRUE,,NA
VN_01_00_0681,0,20,0,330,0,FALSE,FALSE,TRUE,,NA
VN_01_00_0093,0,20,0,330,0,FALSE,FALSE,TRUE,,NA
VN_01_01_1058,0,20,0,330,0,FALSE,FALSE,FALSE,,NA
VN_01_00_0378,0,20,0,330,0,FALSE,FALSE,TRUE,,NA
VN_01_01_1018,0,20,0,330,10,FALSE,FALSE,TRUE,,NA
VN_01_01_0008,1,20,1,330,0,TRUE,FALSE,TRUE,,2
VN_01_00_0091,0,20,0,330,0,FALSE,FALSE,TRUE,,NA
VN_01_00_0043,0,20,0,330,0,FALSE,FALSE,TRUE,,NA
VN_01_01_0131,0,20,2,330,10,TRUE,FALSE,TRUE,,1
VN_01_01_1099,0,20,0,330,0,FALSE,FALSE,TRUE,,NA
VN_01_01_0046,0,20,0,330,0,FALSE,FALSE,TRUE,,NA
VN_03_00_0724,0,20,2,330,0,TRUE,FALSE,TRUE,,1
VN_03_00_0718,0,20,1,330,0,TRUE,FALSE,TRUE,,1
VN_03_00_0726,0,20,0,330,0,FALSE,FALSE,TRUE,,NA
VN_01_00_0073,0,20,0,330,0,FALSE,FALSE,TRUE,,NA
VN_01_01_0048,0,20,0,330,0,FALSE,FALSE,TRUE,,NA
VN_01_01_1100,2,20,2,330,3,TRUE,FALSE,TRUE,,2
VN_01_01_0058,0,20,2,330,0,TRUE,FALSE,TRUE,,1
VN_01_00_0035,0,20,0,330,0,FALSE,TRUE,TRUE,Viatamin,NA
VN_01_00_0032,0,20,0,330,0,FALSE,FALSE,TRUE,,NA
VN_01_00_0223,0,20,0,330,0,FALSE,FALSE,TRUE,,NA
VN_01_01_0966,0,20,0,330,0,FALSE,FALSE,TRUE,,NA
VN_01_00_0090,0,20,0,330,0,FALSE,FALSE,TRUE,,NA
VN_01_01_0187,0,20,1,330,0,TRUE,FALSE,TRUE,,1
VN_01_00_0050,0,20,0,330,0,FALSE,FALSE,TRUE,,NA
VN_01_01_0150,0,20,7,330,0,TRUE,FALSE,TRUE,,1
VN_01_01_0051,0,20,0,330,0,FALSE,FALSE,TRUE,,NA
VN_01_01_1103,7,20,7,330,0,TRUE,FALSE,TRUE,,2
VN_01_00_0224,0,20,0,330,0,FALSE,TRUE,TRUE,TCN,NA
VN_01_01_0679,0,20,0,330,0,FALSE,FALSE,TRUE,,NA
VN_01_00_0673,0,20,0,330,0,FALSE,FALSE,TRUE,,NA
VN_01_01_0916,1,20,1,330,0,TRUE,FALSE,TRUE,,2
VN_01_00_0180,0,20,0,330,0,FALSE,FALSE,TRUE,,NA
VN_01_00_0168,0,20,0,330,0,FALSE,FALSE,TRUE,,NA
VN_01_00_0030,0,20,0,330,0,FALSE,FALSE,TRUE,,NA
VN_01_00_0157,0,20,0,330,0,FALSE,FALSE,TRUE,,NA
VN_01_00_0144,0,20,0,330,0,FALSE,FALSE,TRUE,,NA
VN_01_00_0324,0,20,0,330,0,FALSE,TRUE,TRUE,thuốc bổ,NA
VN_01_00_0146,0,20,0,330,0,FALSE,TRUE,TRUE,Thuốc kháng sinh,NA
VN_01_01_0316,0,20,0,330,0,FALSE,FALSE,TRUE,,NA
VN_01_00_0337,0,20,0,330,0,FALSE,FALSE,TRUE,,NA
VN_01_00_0414,0,20,0,330,0,FALSE,FALSE,TRUE,,NA
VN_01_00_0147,0,20,0,330,0,FALSE,FALSE,TRUE,,NA
VN_01_00_0170,0,20,0,330,0,FALSE,FALSE,TRUE,,NA
VN_01_00_0210,0,20,0,330,0,FALSE,FALSE,TRUE,,NA
VN_01_01_1084,0,20,0,330,0,FALSE,FALSE,TRUE,,NA
VN_01_00_0204,0,20,0,330,0,FALSE,TRUE,TRUE,Vitamin,NA
VN_01_00_0169,0,20,0,330,0,FALSE,FALSE,TRUE,,NA
VN_01_00_0203,0,20,0,330,0,FALSE,FALSE,TRUE,,NA
VN_01_00_0300,0,20,0,330,0,FALSE,FALSE,TRUE,,NA
VN_01_00_0155,0,20,0,330,0,FALSE,TRUE,TRUE,Thuốc điều trị viêm họng,NA
VN_01_01_0181,0,20,0,330,0,FALSE,TRUE,TRUE,Thuốc khớp,NA
VN_01_00_0654,0,20,0,330,0,FALSE,FALSE,TRUE,,NA
VN_01_01_0317,1,20,1,330,0,TRUE,FALSE,TRUE,,2
VN_01_00_0205,0,20,0,330,0,FALSE,TRUE,TRUE,Vitamin,NA
VN_01_01_0222,0,20,0,330,0,FALSE,FALSE,TRUE,,NA
VN_01_00_0209,0,20,0,330,0,FALSE,FALSE,TRUE,,NA
VN_01_01_0340,0,20,0,330,0,FALSE,FALSE,TRUE,,NA
VN_01_01_0301,0,20,0,330,0,FALSE,FALSE,TRUE,,NA
VN_01_01_0656,0,20,0,330,0,FALSE,FALSE,TRUE,,NA
VN_01_00_0328,0,20,0,330,0,FALSE,TRUE,TRUE,Vitamin,NA
VN_03_00_0723,0,20,0,330,0,FALSE,FALSE,TRUE,,NA
VN_03_00_0720,0,20,0,330,0,FALSE,FALSE,TRUE,,NA
VN_01_00_0323,0,20,0,330,0,FALSE,FALSE,TRUE,,NA
VN_01_01_0037,0,20,0,330,0,FALSE,FALSE,TRUE,,NA
VN_01_01_1050,0,20,0,330,0,FALSE,FALSE,TRUE,,NA
VN_01_00_0042,0,20,0,330,0,FALSE,FALSE,TRUE,,NA
VN_01_00_0061,0,20,0,330,0,FALSE,FALSE,TRUE,,NA
VN_01_00_0088,0,20,0,330,0,FALSE,FALSE,TRUE,,NA
VN_01_00_0075,0,20,0,330,0,FALSE,FALSE,TRUE,,NA
VN_01_01_0917,0,20,0,330,0,FALSE,FALSE,TRUE,,NA
VN_01_00_0159,0,20,0,330,0,FALSE,TRUE,TRUE,Thuốc tránh thai,NA
VN_01_00_0012,0,20,1,330,0,TRUE,TRUE,TRUE,vitamin tổng hợp,1
VN_01_01_0009,0,20,0,330,0,FALSE,FALSE,TRUE,,NA
VN_01_00_0007,0,20,0,330,0,FALSE,FALSE,TRUE,,NA
VN_01_00_0092,0,20,0,330,0,FALSE,FALSE,TRUE,,NA
VN_01_01_1033,0,20,0,330,0,FALSE,FALSE,TRUE,,NA
VN_01_01_1034,0,20,0,330,0,FALSE,FALSE,TRUE,,NA
VN_01_00_0148,0,20,0,330,0,FALSE,FALSE,TRUE,,NA
VN_01_01_1012,6,20,6,330,20,TRUE,FALSE,TRUE,,2
VN_01_01_0309,0,20,0,330,0,FALSE,FALSE,TRUE,,NA
VN_01_01_0914,7,20,0,330,0,TRUE,FALSE,TRUE,,0
VN_01_01_0920,0,20,0,330,0,FALSE,FALSE,TRUE,,NA
VN_01_00_0171,0,20,0,330,0,FALSE,FALSE,TRUE,,NA
VN_01_00_0207,0,20,0,330,0,FALSE,TRUE,TRUE,Thuốc năm điều trị bệnh trĩ,NA
VN_01_01_0099,0,20,0,330,0,FALSE,FALSE,TRUE,,NA
VN_01_00_0164,0,20,0,330,0,FALSE,FALSE,TRUE,,NA
VN_01_00_0339,0,20,0,330,0,FALSE,FALSE,TRUE,,NA
VN_01_01_1024,0,20,0,330,0,FALSE,FALSE,TRUE,,NA
VN_01_01_0336,35,20,0,330,10,TRUE,FALSE,TRUE,,0
VN_01_00_0185,0,20,0,330,0,FALSE,FALSE,TRUE,,NA
VN_01_00_0182,0,20,0,330,0,FALSE,TRUE,TRUE,Thuốc tránh thai,NA
VN_01_01_0162,0,20,0,330,20,FALSE,FALSE,TRUE,,NA
VN_01_01_0184,20,20,30,330,40,TRUE,FALSE,TRUE,,2
VN_01_00_0143,0,20,0,330,0,FALSE,FALSE,TRUE,,NA
VN_01_00_0326,0,20,0,330,0,FALSE,TRUE,TRUE,Tenofovit,NA
VN_01_00_0315,0,20,0,330,0,FALSE,FALSE,TRUE,,NA
VN_01_00_0166,0,20,2,330,0,TRUE,FALSE,TRUE,,1
VN_01_01_0160,0,20,0,330,0,FALSE,FALSE,TRUE,,NA
VN_01_00_0311,0,20,0,330,0,FALSE,FALSE,TRUE,,NA
VN_01_01_0186,0,20,0,330,3,FALSE,FALSE,TRUE,,NA
VN_01_00_0167,0,20,0,330,0,FALSE,FALSE,TRUE,,NA
VN_01_01_0307,0,20,0,330,0,FALSE,FALSE,TRUE,,NA
VN_01_01_0208,0,20,0,330,0,FALSE,FALSE,TRUE,,NA
VN_01_01_1059,0,20,0,330,0,FALSE,FALSE,TRUE,,NA
VN_01_00_0211,0,20,0,330,0,FALSE,FALSE,TRUE,,NA
VN_04_01_0283,20,20,10,330,0,TRUE,FALSE,TRUE,,2
VN_04_01_0260,0,20,0,330,0,FALSE,FALSE,TRUE,,NA
VN_04_01_0258,5,20,5,330,0,TRUE,FALSE,TRUE,,2
VN_04_01_0295,15,20,15,330,10,TRUE,FALSE,TRUE,,2
VN_04_01_0286,0,20,6,330,12,TRUE,FALSE,TRUE,,1
VN_04_00_0284,0,20,0,330,0,FALSE,FALSE,TRUE,,NA
VN_04_00_0280,0,20,0,330,0,FALSE,FALSE,TRUE,,NA
VN_04_00_0281,0,20,0,330,0,FALSE,FALSE,TRUE,,NA
VN_04_00_0293,0,20,0,330,0,FALSE,FALSE,TRUE,,NA
VN_04_00_0271,0,20,0,330,0,FALSE,FALSE,TRUE,,NA
VN_04_01_0274,0,20,7,330,0,TRUE,FALSE,TRUE,,1
VN_04_01_0277,0,20,0,330,0,FALSE,FALSE,TRUE,,NA
VN_04_01_0262,10,20,5,330,0,TRUE,FALSE,TRUE,,2
VN_04_01_0291,0,20,0,330,15,FALSE,FALSE,TRUE,,NA
VN_04_01_0275,0,20,0,330,0,FALSE,FALSE,TRUE,,NA
VN_04_01_0249,10,20,10,330,0,TRUE,FALSE,TRUE,,2
VN_04_01_0282,5,20,5,330,0,TRUE,FALSE,TRUE,,2
VN_04_01_0261,0,20,0,330,5,FALSE,FALSE,TRUE,,NA
VN_04_00_0256,0,20,0,330,0,FALSE,FALSE,TRUE,,NA
VN_04_00_0259,0,20,0,330,0,FALSE,FALSE,TRUE,,NA
VN_04_00_0267,0,20,0,330,0,FALSE,FALSE,TRUE,,NA
VN_04_00_0266,3,20,3,330,0,TRUE,FALSE,TRUE,,2
VN_04_00_0270,0,20,0,330,0,FALSE,TRUE,TRUE,canxi,NA
VN_04_00_0264,0,20,0,330,0,FALSE,FALSE,TRUE,,NA
VN_04_00_0246,0,20,0,330,0,FALSE,FALSE,TRUE,,NA
VN_04_00_0268,0,20,0,330,0,FALSE,FALSE,TRUE,,NA
VN_04_00_0276,0,20,0,330,0,FALSE,TRUE,TRUE,Levothyroxin,NA
VN_04_01_0289,20,20,0,330,0,TRUE,FALSE,TRUE,,0
VN_04_01_0252,20,20,7,330,3,TRUE,FALSE,TRUE,,2
VN_04_01_0272,0,20,7,330,2,TRUE,FALSE,TRUE,,1
VN_04_01_0247,0,20,0,330,0,FALSE,FALSE,TRUE,,NA
VN_04_01_0288,0,20,3,330,0,TRUE,FALSE,TRUE,,1
VN_04_00_0294,0,20,0,330,0,FALSE,FALSE,TRUE,,NA
VN_04_00_0265,0,20,0,330,0,FALSE,FALSE,TRUE,,NA
VN_04_00_0253,0,20,0,330,0,FALSE,FALSE,TRUE,,NA
VN_04_00_0269,0,20,0,330,0,FALSE,FALSE,TRUE,,NA
VN_04_00_0279,0,20,0,330,0,FALSE,FALSE,TRUE,,NA
VN_04_00_0290,0,20,0,330,0,FALSE,FALSE,TRUE,,NA
VN_04_00_0273,5,20,2,330,0,TRUE,FALSE,TRUE,,2
VN_04_00_0278,0,20,0,330,0,FALSE,FALSE,TRUE,,NA
VN_04_01_0250,20,20,10,330,0,TRUE,FALSE,TRUE,,2
VN_04_01_0292,10,20,4,330,10,TRUE,FALSE,TRUE,,2
VN_04_01_0263,5,20,5,330,0,TRUE,FALSE,TRUE,,2
VN_04_01_0285,30,20,3,330,0,TRUE,FALSE,TRUE,,2
VN_04_01_0287,30,20,5,330,0,TRUE,FALSE,TRUE,,2
VN_01_01_0975,0,20,0,330,0,FALSE,FALSE,TRUE,,NA
VN_01_01_1042,0,20,0,330,0,FALSE,FALSE,TRUE,,NA
VN_01_01_1035,0,20,0,330,0,FALSE,FALSE,TRUE,,NA
VN_01_00_0226,0,20,0,330,0,FALSE,FALSE,TRUE,,NA
VN_01_01_0918,1,20,1,330,6,TRUE,FALSE,TRUE,,2
VN_01_01_1031,10,20,3,330,5,TRUE,FALSE,TRUE,,2
VN_01_01_0221,0,20,0,330,0,FALSE,FALSE,TRUE,,NA
VN_01_01_1070,0,20,0,330,6,FALSE,FALSE,TRUE,,NA
VN_01_01_0220,0,20,0,330,0,FALSE,FALSE,TRUE,,NA
VN_01_01_0225,0,20,0,330,0,FALSE,FALSE,TRUE,,NA
VN_01_01_1020,0,20,6,330,0,TRUE,FALSE,TRUE,,1
VN_04_00_0255,0,20,0,330,0,FALSE,FALSE,TRUE,,NA
VN_04_01_0257,0,20,10,330,0,TRUE,FALSE,TRUE,,1
VN_04_00_0251,0,20,0,330,0,FALSE,FALSE,TRUE,,NA
VN_04_00_0248,0,20,0,330,0,FALSE,FALSE,TRUE,,NA
VN_04_01_0254,15,20,20,330,0,TRUE,FALSE,TRUE,,2
VN_01_00_0302,0,20,0,330,0,FALSE,FALSE,TRUE,,NA
VN_01_00_0298,0,20,0,330,0,FALSE,FALSE,TRUE,,NA
VN_01_01_0971,1,20,1,330,0,TRUE,FALSE,TRUE,,2
VN_01_01_0972,1,20,6,330,0,TRUE,FALSE,TRUE,,2
VN_01_01_0331,0,20,10,330,0,TRUE,FALSE,TRUE,,1
VN_01_00_0320,0,20,0,330,0,FALSE,FALSE,TRUE,,NA
VN_01_01_0334,20,20,0,330,0,TRUE,FALSE,TRUE,,0
VN_01_00_0367,0,20,0,330,0,FALSE,FALSE,TRUE,,NA
VN_01_00_0412,0,20,0,330,0,FALSE,FALSE,TRUE,,NA
VN_01_01_0411,2,20,2,330,0,TRUE,FALSE,TRUE,,2
VN_01_00_0415,0,20,0,330,0,FALSE,FALSE,TRUE,,NA
VN_01_01_0913,0,20,0,330,0,FALSE,FALSE,TRUE,,NA
VN_01_01_0924,0,20,0,330,0,FALSE,FALSE,TRUE,,NA
VN_01_01_0492,0,20,10,330,0,TRUE,FALSE,TRUE,,1
VN_01_01_1101,2,20,2,330,0,TRUE,FALSE,TRUE,,2
VN_01_00_0497,0,20,0,330,0,FALSE,FALSE,TRUE,,NA
VN_01_01_0491,2,20,0,330,10,TRUE,FALSE,TRUE,,0
VN_01_01_0496,1,20,0,330,0,TRUE,FALSE,TRUE,,0
VN_01_01_0495,1,20,1,330,0,TRUE,FALSE,TRUE,,2
VN_01_00_0498,0,20,0,330,0,FALSE,FALSE,TRUE,,NA
VN_01_01_0606,0,20,0,330,0,FALSE,FALSE,TRUE,,NA
VN_01_00_0605,0,20,0,330,0,FALSE,FALSE,TRUE,,NA
VN_01_00_0608,0,20,0,330,0,FALSE,TRUE,TRUE,Thực phẩm chức năng,NA
VN_01_00_0659,0,20,0,330,0,FALSE,FALSE,TRUE,,NA
VN_01_00_0662,0,20,0,330,0,FALSE,FALSE,TRUE,,NA
VN_01_01_0921,0,20,0,330,0,FALSE,FALSE,TRUE,,NA
VN_01_00_0674,0,20,0,330,0,FALSE,FALSE,TRUE,,NA
VN_03_00_0173,0,20,0,330,0,FALSE,FALSE,TRUE,,NA
VN_03_00_0869,0,20,0,330,0,FALSE,TRUE,TRUE,vitamin e,NA
VN_01_00_0675,0,20,0,330,0,FALSE,FALSE,TRUE,,NA
VN_03_01_0827,5,20,5,330,0,TRUE,FALSE,TRUE,,2
VN_01_00_0680,0,20,0,330,0,FALSE,TRUE,TRUE,Procare,NA
VN_03_00_0825,0,20,0,330,0,FALSE,FALSE,TRUE,,NA
VN_03_00_0312,0,20,0,330,0,FALSE,FALSE,FALSE,,NA
VN_01_01_0685,0,20,0,330,0,FALSE,FALSE,TRUE,,NA
VN_01_01_0682,0,20,0,330,0,FALSE,TRUE,TRUE,Thuốc viêm họng,NA
VN_01_01_0684,20,20,5,330,5,TRUE,FALSE,TRUE,,2
VN_01_01_0683,0,20,0,330,0,FALSE,FALSE,TRUE,,NA
VN_01_01_0690,20,20,0,330,5,TRUE,FALSE,TRUE,,0
VN_01_01_0689,0,20,0,330,0,FALSE,FALSE,TRUE,,NA
VN_01_01_0686,0,20,0,330,0,FALSE,FALSE,TRUE,,NA
VN_01_01_0687,0,20,0,330,10,FALSE,FALSE,TRUE,,NA
VN_03_00_0796,0,20,0,330,0,FALSE,FALSE,TRUE,,NA
VN_03_00_0791,0,20,0,330,0,FALSE,FALSE,TRUE,,NA
VN_03_00_0826,0,20,0,330,0,FALSE,FALSE,TRUE,,NA
VN_03_00_0795,0,20,0,330,0,FALSE,FALSE,TRUE,,NA
VN_03_00_0544,0,20,0,330,0,FALSE,FALSE,TRUE,,NA
VN_03_00_0798,0,20,0,330,0,FALSE,FALSE,TRUE,,NA
VN_03_01_0797,0,20,2,330,0,TRUE,FALSE,TRUE,,1
VN_03_00_0793,0,20,0,330,0,FALSE,FALSE,TRUE,,NA
VN_03_00_0535,0,20,0,330,0,FALSE,FALSE,TRUE,,NA
VN_03_00_0547,0,20,0,330,0,FALSE,FALSE,TRUE,,NA
VN_03_00_0488,0,20,0,330,0,FALSE,FALSE,TRUE,,NA
VN_03_01_0536,0,20,0,330,0,FALSE,FALSE,TRUE,,NA
VN_03_00_0537,0,20,0,330,0,FALSE,FALSE,TRUE,,NA
VN_03_00_0483,0,20,0,330,0,FALSE,FALSE,TRUE,,NA
VN_03_00_0484,0,20,0,330,0,FALSE,FALSE,TRUE,,NA
VN_03_00_0548,0,20,0,330,0,FALSE,FALSE,TRUE,,NA
VN_03_01_0540,0,20,0,330,0,FALSE,FALSE,TRUE,,NA
VN_03_00_0538,0,20,0,330,0,FALSE,FALSE,TRUE,,NA
VN_03_01_0542,0,20,0,330,0,FALSE,FALSE,TRUE,,NA
VN_03_00_0489,0,20,0,330,0,FALSE,FALSE,TRUE,,NA
VN_03_00_0485,0,20,0,330,0,FALSE,FALSE,TRUE,,NA
VN_03_01_0463,0,20,0,330,0,FALSE,FALSE,TRUE,,NA
VN_03_01_0695,0,20,0,330,0,FALSE,FALSE,TRUE,,NA
VN_03_01_0700,0,20,0,330,0,FALSE,FALSE,TRUE,,NA
VN_03_00_0697,0,20,0,330,0,FALSE,FALSE,TRUE,,NA
VN_03_01_0699,0,20,0,330,0,FALSE,FALSE,TRUE,,NA
VN_03_01_0694,0,20,3,330,0,TRUE,FALSE,TRUE,,1
VN_03_01_0779,0,20,1,330,0,TRUE,FALSE,TRUE,,1
VN_03_00_0722,0,20,0,330,0,FALSE,FALSE,TRUE,,NA
VN_03_01_0200,0,20,0,330,0,FALSE,FALSE,TRUE,,NA
VN_03_00_0177,0,20,0,330,0,FALSE,FALSE,TRUE,,NA
VN_03_00_0736,7,20,8,330,0,TRUE,FALSE,TRUE,,2
VN_03_00_0178,0,20,0,330,0,FALSE,FALSE,TRUE,,NA
VN_03_00_0136,0,20,0,330,0,FALSE,FALSE,TRUE,,NA
VN_03_01_0134,0,20,0,330,0,FALSE,FALSE,TRUE,,NA
VN_03_00_0729,0,20,0,330,0,FALSE,FALSE,TRUE,,NA
VN_03_00_0195,0,20,0,330,0,FALSE,FALSE,TRUE,,NA
VN_03_01_0201,0,20,0,330,0,FALSE,FALSE,TRUE,,NA
VN_03_01_0202,0,20,0,330,0,FALSE,FALSE,TRUE,,NA
VN_03_00_0192,0,20,0,330,0,FALSE,FALSE,TRUE,,NA
VN_03_01_0174,0,20,5,330,4,TRUE,FALSE,TRUE,,1
VN_03_00_0725,0,20,0,330,0,FALSE,FALSE,TRUE,,NA
VN_03_00_0741,0,20,7,330,0,TRUE,FALSE,TRUE,,1
VN_03_00_0715,0,20,0,330,0,FALSE,FALSE,TRUE,,NA
VN_03_01_0927,0,20,0,330,0,FALSE,FALSE,TRUE,,NA
VN_03_01_0953,0,20,2,330,0,TRUE,FALSE,TRUE,,1
VN_03_01_0935,0,20,0,330,0,FALSE,FALSE,TRUE,,NA
VN_03_01_0963,0,20,4,330,10,TRUE,FALSE,TRUE,,1
VN_03_01_0949,2,20,0,330,10,TRUE,FALSE,TRUE,,0
VN_03_00_0940,0,20,0,330,0,FALSE,FALSE,TRUE,,NA
VN_03_00_0964,0,20,0,330,0,FALSE,FALSE,TRUE,,NA
VN_03_00_0932,0,20,0,330,0,FALSE,FALSE,TRUE,,NA
VN_03_00_0995,0,20,0,330,0,FALSE,FALSE,TRUE,,NA
VN_03_00_0979,0,20,0,330,0,FALSE,FALSE,TRUE,,NA
VN_03_00_0938,0,20,0,330,0,FALSE,FALSE,TRUE,,NA
VN_03_00_0980,0,20,0,330,0,FALSE,FALSE,TRUE,,NA
VN_02_01_0552,0,20,10,330,5,TRUE,FALSE,TRUE,,1
VN_03_00_0942,0,20,0,330,0,FALSE,FALSE,TRUE,,NA
VN_03_01_0984,4,20,5,330,0,TRUE,FALSE,TRUE,,2
VN_03_01_1002,0,20,10,330,10,TRUE,FALSE,TRUE,,1
VN_03_01_0983,0,20,5,330,0,TRUE,FALSE,TRUE,,1
VN_03_01_0986,0,20,0,330,0,FALSE,FALSE,TRUE,,NA
VN_03_01_1008,0,20,0,330,0,FALSE,FALSE,TRUE,,NA
VN_03_00_1054,0,20,0,330,0,FALSE,FALSE,TRUE,,NA
VN_03_00_1055,0,20,0,330,0,FALSE,FALSE,TRUE,,NA
VN_03_00_0998,0,20,0,330,0,FALSE,FALSE,TRUE,,NA
VN_03_00_0982,0,20,0,330,0,FALSE,FALSE,TRUE,,NA
VN_03_00_0988,0,20,0,330,0,FALSE,FALSE,TRUE,,NA
VN_03_00_0401,0,20,0,330,0,FALSE,FALSE,TRUE,,NA
VN_03_00_0806,0,20,0,330,0,FALSE,FALSE,TRUE,,NA
VN_03_00_1005,0,20,0,330,0,FALSE,FALSE,TRUE,,NA
VN_03_00_0402,0,20,0,330,0,FALSE,FALSE,TRUE,,NA
VN_03_00_1009,0,20,0,330,0,FALSE,FALSE,TRUE,,NA
VN_03_00_0406,0,20,0,330,0,FALSE,FALSE,TRUE,,NA
VN_03_00_0375,0,20,0,330,0,FALSE,FALSE,TRUE,,NA
VN_03_00_1001,0,20,0,330,0,FALSE,TRUE,TRUE,bứu giáp,NA
VN_03_00_0999,0,20,0,330,0,FALSE,FALSE,TRUE,,NA
VN_03_00_0363,0,20,0,330,0,FALSE,FALSE,FALSE,,NA
VN_03_00_0400,0,20,0,330,0,FALSE,FALSE,TRUE,,NA
VN_03_00_0390,0,20,0,330,0,FALSE,FALSE,TRUE,,NA
VN_03_00_0405,0,20,0,330,0,FALSE,FALSE,TRUE,,NA
VN_03_00_0985,0,20,0,330,0,FALSE,FALSE,TRUE,,NA
VN_03_00_0397,0,20,0,330,0,FALSE,FALSE,TRUE,,NA
VN_03_01_0987,10,20,0,330,10,TRUE,FALSE,TRUE,,0
VN_03_01_1000,0,20,3,330,0,TRUE,FALSE,TRUE,,1
VN_03_01_0802,0,20,2,330,5,TRUE,FALSE,TRUE,,1
VN_03_01_1004,0,20,0,330,0,FALSE,FALSE,TRUE,,NA
VN_03_01_0981,0,20,1,330,0,TRUE,FALSE,TRUE,,1
VN_03_01_0804,0,20,1,330,0,TRUE,FALSE,TRUE,,1
VN_03_01_0805,0,20,2,330,0,TRUE,FALSE,TRUE,,1
VN_03_00_1010,0,20,0,330,0,FALSE,FALSE,TRUE,,NA
VN_03_00_0828,0,20,0,330,0,FALSE,FALSE,TRUE,,NA
VN_03_00_0731,0,20,0,330,0,FALSE,TRUE,TRUE,Vitamin E, calci
VN_02_00_0104,0,20,0,330,0,FALSE,FALSE,TRUE,,NA
VN_02_01_0379,0,20,0,330,0,FALSE,FALSE,TRUE,,NA
VN_02_01_0669,0,20,0,330,0,FALSE,FALSE,TRUE,,NA
VN_02_00_0113,0,20,0,330,0,FALSE,FALSE,TRUE,,NA
VN_02_00_0553,0,20,0,330,0,FALSE,FALSE,TRUE,,NA
VN_02_01_0383,0,20,6,330,0,TRUE,FALSE,TRUE,,1
VN_02_00_0101,0,20,0,330,0,FALSE,FALSE,TRUE,,NA
VN_02_01_0671,0,20,8,330,0,TRUE,FALSE,TRUE,,1
VN_02_01_0111,0,20,0,330,0,FALSE,FALSE,TRUE,,NA
VN_02_00_0114,0,20,0,330,0,FALSE,FALSE,TRUE,,NA
VN_02_01_0105,0,20,0,330,0,FALSE,FALSE,TRUE,,NA
VN_02_00_0112,0,20,0,330,0,FALSE,FALSE,TRUE,,NA
VN_02_00_0106,0,20,0,330,0,FALSE,TRUE,TRUE,thuốốc  đau đầầu,NA
VN_02_00_0237,0,20,0,330,0,FALSE,FALSE,TRUE,,NA
VN_02_01_0244,0,20,3,330,3,TRUE,FALSE,TRUE,,1
VN_02_01_0242,0,20,1,330,2,TRUE,TRUE,TRUE,viêm mũi dị ứng,1
VN_02_01_0667,0,20,2,330,0,TRUE,TRUE,TRUE,viêm dạ dày,1
VN_02_01_0110,0,20,0,330,0,FALSE,FALSE,TRUE,,NA
VN_02_01_0620,0,20,0,330,0,FALSE,FALSE,TRUE,,NA
VN_02_00_0613,0,20,0,330,0,FALSE,FALSE,TRUE,,NA
VN_02_00_0619,0,20,0,330,0,FALSE,FALSE,TRUE,,NA
VN_02_01_0232,0,20,15,330,0,TRUE,FALSE,TRUE,,1
VN_02_00_0633,0,20,0,330,0,FALSE,FALSE,TRUE,,NA
VN_02_00_0644,0,20,0,330,0,FALSE,FALSE,TRUE,,NA
VN_02_00_0630,0,20,0,330,0,FALSE,FALSE,TRUE,,NA
VN_02_01_0229,0,20,5,330,3,TRUE,FALSE,TRUE,,1
VN_02_01_0614,0,20,5,330,2,TRUE,FALSE,TRUE,,1
VN_02_01_0616,0,20,3,330,5,TRUE,FALSE,TRUE,,1
VN_02_01_0241,0,20,1,330,0,TRUE,FALSE,TRUE,,1
VN_02_01_0245,0,20,3,330,0,TRUE,FALSE,TRUE,,1
VN_02_01_0233,0,20,3,330,10,TRUE,FALSE,TRUE,,1
VN_02_00_0621,0,20,0,330,0,FALSE,FALSE,TRUE,,NA
VN_03_00_0734,0,20,0,330,0,FALSE,FALSE,TRUE,,NA
VN_02_01_0641,0,20,3,330,5,TRUE,FALSE,TRUE,,1
VN_02_01_0617,0,20,0,330,0,FALSE,FALSE,TRUE,,NA
VN_03_01_0198,0,20,0,330,0,FALSE,FALSE,TRUE,,NA
VN_02_00_0239,0,20,0,330,0,FALSE,FALSE,TRUE,,NA
VN_02_01_0629,0,20,0,330,0,FALSE,TRUE,TRUE,thoat vi dia dem,NA
VN_02_00_0610,0,20,0,330,0,FALSE,FALSE,TRUE,,NA
VN_02_00_0632,0,20,0,330,0,FALSE,FALSE,TRUE,,NA
VN_03_00_0701,0,20,0,330,0,FALSE,FALSE,TRUE,,NA
VN_02_01_0646,0,20,3,330,0,TRUE,FALSE,TRUE,,1
VN_03_00_0850,0,20,0,330,0,FALSE,FALSE,TRUE,,NA
VN_02_01_0637,0,20,4,330,3,TRUE,FALSE,TRUE,,1
VN_02_01_0645,0,20,60,330,1,TRUE,FALSE,TRUE,,1
VN_02_01_0612,0,20,5,330,0,TRUE,FALSE,TRUE,,1
VN_02_01_0643,0,20,6,330,0,TRUE,FALSE,TRUE,,1
VN_02_00_0625,0,20,0,330,0,FALSE,FALSE,TRUE,,NA
VN_02_01_0623,0,20,0,330,0,FALSE,FALSE,TRUE,,NA
VN_02_00_0236,0,20,0,330,0,FALSE,TRUE,TRUE,thuốc tránh thai,NA
VN_03_00_0714,0,20,0,330,0,FALSE,FALSE,TRUE,,NA
VN_02_01_0640,0,20,3,330,3,TRUE,FALSE,TRUE,,1
VN_02_01_0618,2,20,10,330,0,TRUE,FALSE,TRUE,,2
VN_02_00_0631,0,20,0,330,0,FALSE,FALSE,TRUE,,NA
VN_02_01_0611,0,20,5,330,0,TRUE,FALSE,TRUE,,1
VN_02_01_0628,0,20,0,330,5,FALSE,FALSE,TRUE,,NA
VN_02_01_0387,0,20,0,330,0,FALSE,FALSE,TRUE,,NA
VN_03_01_0719,0,20,0,330,0,FALSE,FALSE,TRUE,,NA
VN_03_01_0486,0,20,0,330,0,FALSE,FALSE,TRUE,,NA
VN_03_00_0549,0,20,0,330,0,FALSE,FALSE,TRUE,,NA
VN_03_00_0490,0,20,0,330,0,FALSE,FALSE,TRUE,,NA
VN_03_00_0539,0,20,0,330,0,FALSE,FALSE,TRUE,,NA
VN_03_00_0487,0,20,0,330,0,FALSE,FALSE,TRUE,,NA
VN_03_00_0990,0,20,0,330,0,FALSE,FALSE,TRUE,,NA
VN_03_00_0447,0,20,0,330,0,FALSE,FALSE,TRUE,,NA
VN_03_00_0456,0,20,0,330,0,FALSE,FALSE,TRUE,,NA
VN_03_00_0427,0,20,0,330,0,FALSE,FALSE,TRUE,,NA
VN_03_00_0433,0,20,0,330,0,FALSE,FALSE,TRUE,,NA
VN_03_00_0693,0,20,0,330,0,FALSE,FALSE,TRUE,,NA
VN_03_01_0742,0,20,0,330,0,FALSE,FALSE,TRUE,,NA
VN_02_00_0234,0,20,0,330,0,FALSE,FALSE,TRUE,,NA
VN_02_01_0527,0,20,0,330,0,FALSE,FALSE,TRUE,,NA
VN_02_00_0107,0,20,0,330,0,FALSE,FALSE,TRUE,,NA
VN_02_00_0240,0,20,0,330,0,FALSE,FALSE,TRUE,,NA
VN_03_01_0118,0,20,0,330,0,FALSE,FALSE,TRUE,,NA
VN_03_00_0117,0,20,0,330,0,FALSE,FALSE,TRUE,,NA
VN_03_01_0743,0,20,1,330,3,TRUE,FALSE,TRUE,,1
VN_03_00_0213,0,20,0,330,0,FALSE,FALSE,TRUE,,NA
VN_01_01_1016,0,20,0,330,0,FALSE,FALSE,TRUE,,NA
VN_03_01_0706,0,20,2,330,0,TRUE,FALSE,TRUE,,1
VN_03_01_0783,0,20,0,330,5,FALSE,FALSE,TRUE,,NA
VN_02_01_0108,0,20,0,330,0,FALSE,FALSE,TRUE,,NA
VN_03_01_1064,0,20,0,330,0,FALSE,FALSE,TRUE,,NA
VN_02_00_0670,0,20,0,330,0,FALSE,TRUE,TRUE,vitamin,NA
VN_02_01_0665,0,20,5,330,0,TRUE,FALSE,TRUE,,1
VN_03_00_0314,0,20,0,330,0,FALSE,FALSE,TRUE,,NA
VN_03_00_0960,0,20,0,330,0,FALSE,TRUE,TRUE,thực phẩm chức năng ,NA
VN_03_00_0954,0,20,0,330,0,FALSE,FALSE,TRUE,,NA
VN_03_00_0945,0,20,0,330,0,FALSE,FALSE,TRUE,,NA
VN_03_00_0961,0,20,0,330,0,FALSE,TRUE,TRUE,thuốc tránh thai,NA
VN_03_00_0930,0,20,0,330,0,FALSE,FALSE,TRUE,,NA
VN_03_01_0951,0,20,3,330,0,TRUE,FALSE,TRUE,,1
VN_03_01_0962,2,20,0,330,3,TRUE,FALSE,TRUE,,0
VN_02_00_0622,0,20,0,330,0,FALSE,FALSE,FALSE,,NA
VN_02_00_0231,0,20,0,330,0,FALSE,FALSE,TRUE,,NA
VN_02_00_0103,0,20,0,330,0,FALSE,FALSE,TRUE,,NA
VN_02_00_0109,0,20,2,330,0,TRUE,FALSE,TRUE,,1
VN_02_01_0115,0,20,0,330,0,FALSE,FALSE,TRUE,,NA
VN_03_00_0190,0,20,0,330,0,FALSE,FALSE,TRUE,,NA
VN_03_00_0121,0,20,0,330,0,FALSE,FALSE,TRUE,,NA
VN_03_00_0787,0,20,0,330,0,FALSE,FALSE,TRUE,,NA
VN_03_01_0215,0,20,0,330,4,FALSE,FALSE,TRUE,,NA
VN_03_00_0197,0,20,0,330,0,FALSE,FALSE,TRUE,,NA
VN_03_00_0751,0,20,0,330,0,FALSE,FALSE,TRUE,,NA
VN_03_01_1006,0,20,0,330,0,FALSE,FALSE,FALSE,,NA
VN_03_01_1003,0,20,3,330,6,TRUE,FALSE,TRUE,,1
VN_03_01_0997,0,20,2,330,0,TRUE,FALSE,TRUE,,1
VN_03_01_0373,0,20,2,330,0,TRUE,FALSE,TRUE,,1
VN_03_01_0358,0,20,0,330,0,FALSE,FALSE,TRUE,,NA
VN_03_01_0359,0,20,0,330,0,FALSE,FALSE,TRUE,,NA
VN_03_01_0410,1,20,2,330,3,TRUE,FALSE,TRUE,,2
VN_03_01_0350,0,20,0,330,0,FALSE,FALSE,TRUE,,NA
VN_03_00_0361,0,20,0,330,0,FALSE,FALSE,TRUE,,NA
VN_03_00_0349,0,20,0,330,0,FALSE,FALSE,TRUE,,NA
VN_03_00_0348,0,20,6,330,0,TRUE,FALSE,TRUE,,1
VN_03_00_0342,0,20,0,330,0,FALSE,FALSE,TRUE,,NA
VN_03_00_0354,0,20,0,330,0,FALSE,FALSE,TRUE,,NA
VN_03_00_0352,0,20,0,330,0,FALSE,FALSE,TRUE,,NA
VN_03_00_0407,0,20,0,330,0,FALSE,FALSE,TRUE,,NA
VN_03_01_0341,0,20,0,330,0,FALSE,FALSE,TRUE,,NA
VN_03_00_0179,0,20,0,330,0,FALSE,FALSE,FALSE,,NA
VN_03_00_0212,0,20,0,330,0,FALSE,FALSE,TRUE,,NA
VN_03_00_0172,0,20,0,330,0,FALSE,FALSE,TRUE,,NA
VN_01_01_0773,10,20,10,330,10,TRUE,FALSE,TRUE,,2
VN_01_01_0769,0,20,0,330,4,FALSE,FALSE,TRUE,,NA
VN_01_01_0774,10,20,7,330,0,TRUE,FALSE,TRUE,,2
VN_01_01_0770,0,20,0,330,10,FALSE,FALSE,TRUE,,NA
VN_01_01_0777,30,20,15,330,0,TRUE,TRUE,TRUE,thực phẩm chức năng,2
VN_01_01_0776,10,20,0,330,0,TRUE,TRUE,TRUE,Vitamin A,0
VN_01_01_0775,7,20,7,330,2,TRUE,FALSE,TRUE,,2
VN_01_00_0771,0,20,0,330,0,FALSE,FALSE,TRUE,,NA
VN_01_00_0772,0,20,0,330,0,FALSE,TRUE,TRUE,điều trị viêm họng,NA
VN_03_01_1091,0,20,0,330,0,FALSE,FALSE,TRUE,,NA
VN_03_01_1074,0,20,0,330,3,FALSE,FALSE,TRUE,,NA
VN_03_01_1088,0,20,20,330,7,TRUE,FALSE,TRUE,,1
VN_03_01_1094,0,20,1,330,0,TRUE,FALSE,TRUE,,1
VN_03_01_1073,0,20,0,330,0,FALSE,FALSE,TRUE,,NA
VN_03_01_1072,0,20,0,330,0,FALSE,FALSE,TRUE,,NA
VN_03_01_1092,1,20,1,330,0,TRUE,FALSE,TRUE,,2
VN_03_01_1075,0,20,5,330,6,TRUE,FALSE,TRUE,,1
VN_03_00_0175,0,20,0,330,0,FALSE,FALSE,TRUE,,NA
VN_03_00_0176,0,20,0,330,0,FALSE,FALSE,TRUE,,NA
VN_02_00_0384,0,20,3,330,0,TRUE,FALSE,TRUE,,1
VN_02_00_0381,0,20,0,330,0,FALSE,FALSE,TRUE,,NA
VN_02_00_0385,0,20,0,330,0,FALSE,FALSE,TRUE,,NA
VN_02_00_0380,0,20,0,330,0,FALSE,FALSE,TRUE,,NA
VN_03_01_0360,0,20,0,330,0,FALSE,FALSE,TRUE,,NA
VN_03_01_0545,0,20,0,330,0,FALSE,FALSE,TRUE,,NA
VN_02_01_0238,0,20,4,330,0,TRUE,FALSE,TRUE,,1
VN_02_01_0230,0,20,3,330,3,TRUE,FALSE,TRUE,,1
VN_02_01_0664,0,20,4,330,0,TRUE,FALSE,TRUE,,1
VN_03_00_0217,0,20,0,330,0,FALSE,FALSE,TRUE,,NA
VN_03_01_0189,4,20,2,330,0,TRUE,FALSE,TRUE,,2
VN_03_01_0404,10,20,6,330,0,TRUE,FALSE,TRUE,,2
VN_02_01_0653,0,20,6,330,0,TRUE,FALSE,TRUE,,1
VN_02_01_0652,0,20,20,330,5,TRUE,FALSE,TRUE,,1
VN_03_00_0199,0,20,0,330,0,FALSE,FALSE,TRUE,,NA
VN_02_00_0559,0,20,0,330,0,FALSE,FALSE,TRUE,,NA
VN_02_01_0624,3,20,2,330,10,TRUE,FALSE,TRUE,,2
VN_02_01_0519,15,20,10,330,0,TRUE,FALSE,TRUE,,2
VN_02_01_0577,0,20,0,330,0,FALSE,FALSE,TRUE,,NA
VN_02_01_0563,0,20,0,330,0,FALSE,FALSE,TRUE,,NA
VN_02_01_0533,50,20,15,330,0,TRUE,FALSE,TRUE,,2
VN_02_01_0585,0,20,3,330,0,TRUE,FALSE,TRUE,,1
VN_02_01_0567,0,20,3,330,0,TRUE,FALSE,TRUE,,1
VN_02_01_0597,0,20,0,330,0,FALSE,FALSE,TRUE,,NA
VN_02_01_0573,3,20,2,330,0,TRUE,FALSE,TRUE,,2
VN_02_01_0562,0,20,2,330,0,TRUE,FALSE,TRUE,,1
VN_02_01_0592,0,20,0,330,0,FALSE,FALSE,TRUE,,NA
VN_02_01_0571,0,20,5,330,3,TRUE,FALSE,TRUE,,1
VN_02_01_0576,0,20,5,330,0,TRUE,FALSE,TRUE,,1
VN_02_01_0590,0,20,0,330,0,FALSE,FALSE,TRUE,,NA
VN_02_01_0591,0,20,7,330,3,TRUE,FALSE,TRUE,,1
VN_02_01_0575,5,20,5,330,0,TRUE,FALSE,TRUE,,2
VN_02_01_0594,2,20,2,330,0,TRUE,FALSE,TRUE,,2
VN_02_00_0507,0,20,0,330,0,FALSE,FALSE,TRUE,,NA
VN_02_00_0522,0,20,0,330,0,FALSE,FALSE,TRUE,,NA
VN_02_00_0582,0,20,0,330,0,FALSE,FALSE,TRUE,,NA
VN_02_00_0569,0,20,0,330,0,FALSE,FALSE,TRUE,,NA
VN_02_00_0513,0,20,0,330,0,FALSE,FALSE,TRUE,,NA
VN_02_00_0504,0,20,0,330,0,FALSE,FALSE,TRUE,,NA
VN_02_00_0500,0,20,0,330,0,FALSE,FALSE,TRUE,,NA
VN_02_00_0514,0,20,0,330,0,FALSE,FALSE,TRUE,,NA
VN_02_00_0599,0,20,0,330,0,FALSE,FALSE,TRUE,,NA
VN_02_00_0501,0,20,0,330,0,FALSE,FALSE,TRUE,,NA
VN_02_00_0521,0,20,0,330,0,FALSE,FALSE,TRUE,,NA
VN_02_00_0516,0,20,0,330,0,FALSE,FALSE,TRUE,,NA
VN_02_00_0588,0,20,0,330,0,FALSE,TRUE,TRUE,bổ máu,NA
VN_02_00_0601,0,20,0,330,0,FALSE,FALSE,TRUE,,NA
VN_02_00_0557,0,20,0,330,0,FALSE,FALSE,TRUE,,NA
VN_02_00_0502,0,20,0,330,0,FALSE,FALSE,TRUE,,NA
VN_02_00_0565,0,20,0,330,0,FALSE,FALSE,TRUE,,NA
VN_02_01_0530,0,20,4,330,3,TRUE,FALSE,TRUE,,1
VN_02_00_0560,0,20,0,330,0,FALSE,FALSE,TRUE,,NA
VN_02_01_0505,0,20,0,330,30,FALSE,FALSE,TRUE,,NA
VN_02_01_0503,0,20,20,330,3,TRUE,FALSE,TRUE,,1
VN_02_01_0570,2,20,0,330,5,TRUE,FALSE,TRUE,,0
VN_02_00_0572,0,20,0,330,0,FALSE,FALSE,TRUE,,NA
VN_02_00_0586,0,20,0,330,0,FALSE,FALSE,TRUE,,NA
VN_02_00_0566,0,20,0,330,0,FALSE,FALSE,TRUE,,NA
VN_02_00_0506,0,20,0,330,0,FALSE,FALSE,FALSE,,NA
VN_02_00_0532,0,20,0,330,0,FALSE,FALSE,TRUE,,NA
VN_02_00_0593,0,20,0,330,0,FALSE,FALSE,TRUE,,NA
VN_02_00_0510,0,20,0,330,0,FALSE,FALSE,TRUE,,NA
VN_02_00_0509,0,20,0,330,0,FALSE,FALSE,TRUE,,NA
VN_02_00_0598,0,20,0,330,0,FALSE,FALSE,TRUE,,NA
VN_02_00_0499,0,20,0,330,0,FALSE,FALSE,TRUE,,NA
VN_02_00_0529,0,20,0,330,0,FALSE,FALSE,TRUE,,NA
VN_02_00_0518,0,20,0,330,0,FALSE,FALSE,TRUE,,NA
VN_02_00_0579,0,20,0,330,0,FALSE,FALSE,TRUE,,NA
VN_02_00_0580,0,20,0,330,0,FALSE,FALSE,TRUE,,NA
VN_02_00_0568,0,20,0,330,0,FALSE,FALSE,TRUE,,NA
VN_02_00_0584,0,20,0,330,0,FALSE,FALSE,TRUE,,NA
VN_02_00_0574,0,20,0,330,0,FALSE,FALSE,TRUE,,NA
VN_03_00_0216,0,20,0,330,0,FALSE,FALSE,TRUE,,NA
VN_02_01_0235,0,20,0,330,0,FALSE,FALSE,TRUE,,NA
VN_02_01_0635,1,20,2,330,0,TRUE,FALSE,TRUE,,2
VN_02_00_0634,0,20,0,330,0,FALSE,FALSE,TRUE,,NA
VN_02_01_0627,10,20,10,330,10,TRUE,FALSE,TRUE,,2
VN_02_01_0609,0,20,0,330,0,FALSE,FALSE,TRUE,,NA
VN_02_01_0651,5,20,10,330,5,TRUE,FALSE,TRUE,,2
VN_03_01_1078,0,20,0,330,0,FALSE,FALSE,TRUE,,NA
VN_02_01_0524,0,20,0,330,0,FALSE,FALSE,FALSE,,NA
VN_02_01_0525,0,20,5,330,0,TRUE,FALSE,TRUE,,1
VN_02_01_0511,0,20,1,330,0,TRUE,FALSE,TRUE,,1
VN_02_01_0602,0,20,5,330,0,TRUE,FALSE,TRUE,,1
VN_03_00_0191,0,20,0,330,0,FALSE,FALSE,TRUE,,NA
VN_03_00_0196,0,20,0,330,0,FALSE,FALSE,TRUE,,NA
VN_03_00_0737,0,20,0,330,0,FALSE,FALSE,TRUE,,NA
VN_03_01_0478,0,20,0,330,0,FALSE,FALSE,TRUE,,NA
VN_01_01_1026,0,20,0,330,0,FALSE,FALSE,TRUE,,NA
VN_01_01_0911,0,20,3,330,1,TRUE,FALSE,TRUE,,1
VN_03_00_0194,0,20,0,330,0,FALSE,FALSE,TRUE,,NA
VN_03_00_0193,0,20,0,330,0,FALSE,FALSE,TRUE,,NA
VN_03_01_0214,0,20,5,330,5,TRUE,FALSE,TRUE,,1
VN_01_01_1028,0,20,0,330,0,FALSE,FALSE,TRUE,,NA
VN_01_01_1027,0,20,2,330,2,TRUE,FALSE,TRUE,,1
VN_02_00_0102,0,20,0,330,0,FALSE,FALSE,TRUE,,NA
VN_01_01_1041,0,20,0,330,0,FALSE,FALSE,TRUE,,NA
VN_03_00_0711,0,20,1,330,0,TRUE,FALSE,TRUE,,1
VN_03_00_0712,0,20,0,330,0,FALSE,FALSE,TRUE,,NA
VN_03_00_0713,0,20,0,330,0,FALSE,FALSE,TRUE,,NA
VN_03_00_0707,0,20,0,330,0,FALSE,FALSE,FALSE,,NA
VN_03_01_0710,0,20,2,330,0,TRUE,FALSE,TRUE,,1
VN_01_01_1049,0,20,0,330,0,FALSE,FALSE,TRUE,,NA
VN_01_01_1019,0,20,0,330,0,FALSE,FALSE,TRUE,,NA
VN_01_01_1040,0,20,0,330,0,FALSE,FALSE,TRUE,,NA
VN_01_01_1030,0,20,0,330,0,FALSE,FALSE,TRUE,,NA
VN_01_01_1047,0,20,0,330,0,FALSE,FALSE,TRUE,,NA
VN_02_00_0520,0,20,0,330,0,FALSE,FALSE,TRUE,,NA
VN_01_01_1045,1,20,1,330,0,TRUE,TRUE,TRUE,bổ gan,2
VN_02_01_0386,0,20,0,330,0,FALSE,FALSE,TRUE,,NA
VN_01_01_1039,1,20,3,330,0,TRUE,FALSE,TRUE,,2
VN_03_01_1097,0,20,15,330,0,TRUE,FALSE,TRUE,,1
VN_02_00_0382,0,20,0,330,0,FALSE,TRUE,TRUE,hoạt huyết dưỡng não,NA
VN_03_01_0721,0,20,0,330,0,FALSE,FALSE,TRUE,,NA
VN_01_01_0969,0,20,0,330,0,FALSE,FALSE,TRUE,,NA
VN_01_01_1046,0,20,0,330,0,FALSE,FALSE,TRUE,,NA
VN_01_01_0973,0,20,0,330,0,FALSE,FALSE,TRUE,,NA
VN_01_01_0925,0,20,3,330,0,TRUE,FALSE,TRUE,,1
VN_01_01_0923,0,20,7,330,0,TRUE,FALSE,TRUE,,1
VN_01_01_0926,0,20,0,330,0,FALSE,FALSE,TRUE,,NA
VN_01_00_0836,0,20,0,330,0,FALSE,FALSE,TRUE,,NA
VN_03_01_0800,0,20,0,330,0,FALSE,TRUE,TRUE,khang virus vien gan b,NA
VN_03_01_0808,0,20,0,330,0,FALSE,FALSE,FALSE,,NA
VN_03_00_0803,0,20,0,330,0,FALSE,FALSE,TRUE,,NA
VN_03_00_0807,0,20,0,330,0,FALSE,FALSE,TRUE,,NA
VN_03_00_0801,0,20,0,330,0,FALSE,FALSE,TRUE,,NA
VN_03_00_0799,0,20,0,330,0,FALSE,FALSE,TRUE,,NA
VN_03_01_1090,0,20,0,330,6,FALSE,FALSE,TRUE,,NA
VN_03_01_1089,0,20,0,330,0,FALSE,TRUE,TRUE,thực phẩm chức năng ,NA
VN_03_01_1093,0,20,0,330,0,FALSE,FALSE,TRUE,,NA
VN_03_01_1095,0,20,0,330,0,FALSE,FALSE,TRUE,,NA
VN_02_01_0388,0,20,0,330,0,FALSE,FALSE,TRUE,,NA
VN_02_01_0672,0,20,3,330,0,TRUE,FALSE,TRUE,,1
VN_03_01_1098,5,20,8,330,0,TRUE,FALSE,TRUE,,2
VN_03_01_0347,0,20,18,330,10,TRUE,FALSE,TRUE,,1
VN_03_01_1096,0,20,1,330,0,TRUE,TRUE,TRUE,viêm gan b ,1
VN_03_00_0346,0,20,0,330,0,FALSE,FALSE,TRUE,,NA
VN_03_00_0355,0,20,0,330,0,FALSE,FALSE,TRUE,,NA
VN_03_00_0408,0,20,0,330,0,FALSE,FALSE,TRUE,,NA
VN_03_00_0362,0,20,0,330,0,FALSE,FALSE,FALSE,,NA
VN_03_00_0365,0,20,0,330,0,FALSE,FALSE,TRUE,,NA
VN_03_00_0345,0,20,2,330,0,TRUE,FALSE,TRUE,,1
VN_03_00_0409,0,20,0,330,0,FALSE,FALSE,TRUE,,NA
VN_03_00_0344,0,20,0,330,0,FALSE,FALSE,TRUE,,NA
VN_03_00_0353,0,20,0,330,0,FALSE,FALSE,TRUE,,NA
VN_03_00_0351,0,20,0,330,0,FALSE,FALSE,TRUE,,NA
VN_03_00_0366,0,20,0,330,0,FALSE,FALSE,TRUE,,NA
VN_03_00_0356,0,20,0,330,0,FALSE,FALSE,TRUE,,NA
VN_03_00_0357,0,20,0,330,0,FALSE,FALSE,TRUE,,NA
VN_03_00_0364,0,20,0,330,0,FALSE,TRUE,TRUE,Daflin,NA
VN_03_00_0343,0,20,0,330,0,FALSE,TRUE,TRUE,huyết áp,NA
VN_03_01_0403,0,20,0,330,0,FALSE,FALSE,FALSE,,NA
VN_03_00_0398,0,20,0,330,0,FALSE,FALSE,TRUE,,NA
VN_03_00_0716,0,20,0,330,0,FALSE,FALSE,TRUE,,NA
VN_03_00_0445,0,20,0,330,0,FALSE,FALSE,TRUE,,NA
VN_03_00_0426,0,20,0,330,0,FALSE,FALSE,TRUE,,NA
VN_03_01_1060,0,20,2,330,0,TRUE,FALSE,TRUE,,1
VN_02_00_0512,0,20,0,330,0,FALSE,FALSE,TRUE,,NA
VN_02_00_0555,0,20,0,330,0,FALSE,FALSE,TRUE,,NA
VN_03_01_0448,0,20,3,330,0,TRUE,FALSE,TRUE,,1
VN_03_01_0431,0,20,0,330,1,FALSE,FALSE,TRUE,,NA
VN_03_01_0421,0,20,2,330,10,TRUE,FALSE,TRUE,,1
VN_03_01_0853,0,20,0,330,0,FALSE,FALSE,TRUE,,NA
VN_03_01_0424,0,20,0,330,0,FALSE,FALSE,TRUE,,NA
VN_03_01_0866,0,20,0,330,0,FALSE,FALSE,TRUE,,NA
VN_03_01_0895,0,20,1,330,2,TRUE,FALSE,TRUE,,1
VN_03_01_0893,0,20,0,330,0,FALSE,FALSE,TRUE,,NA
VN_03_01_0465,0,20,0,330,0,FALSE,FALSE,TRUE,,NA
VN_03_01_0429,3,20,4,330,10,TRUE,FALSE,TRUE,,2
VN_03_01_0892,0,20,1,330,0,TRUE,FALSE,TRUE,,1
VN_03_01_0877,0,20,0,330,0,FALSE,FALSE,TRUE,,NA
VN_03_01_0416,0,20,0,330,0,FALSE,FALSE,FALSE,,NA
VN_03_01_0867,0,20,1,330,0,TRUE,FALSE,TRUE,,1
VN_03_01_0872,0,20,1,330,0,TRUE,FALSE,TRUE,,1
VN_03_01_0470,0,20,0,330,0,FALSE,FALSE,TRUE,,NA
VN_03_01_0900,0,20,0,330,0,FALSE,FALSE,TRUE,,NA
VN_03_01_0440,0,20,0,330,0,FALSE,FALSE,TRUE,,NA
VN_03_01_0469,0,20,5,330,0,TRUE,FALSE,TRUE,,1
VN_03_01_0452,0,20,0,330,0,FALSE,FALSE,TRUE,,NA
VN_03_01_0890,0,20,0,330,0,FALSE,FALSE,TRUE,,NA
VN_03_01_0857,0,20,3,330,0,TRUE,FALSE,TRUE,,1
VN_03_01_0888,0,20,0,330,1,FALSE,FALSE,TRUE,,NA
VN_03_01_0889,0,20,0,330,0,FALSE,FALSE,TRUE,,NA
VN_03_01_0861,0,20,0,330,0,FALSE,FALSE,TRUE,,NA
VN_03_01_0903,0,20,0,330,0,FALSE,FALSE,TRUE,,NA
VN_03_01_0894,1,20,1,330,0,TRUE,FALSE,TRUE,,2
VN_03_01_0876,0,20,0,330,1,FALSE,TRUE,TRUE,canxi, glucoximin
VN_03_01_0897,0,20,0,330,0,FALSE,FALSE,TRUE,,NA
VN_03_01_0864,5,20,5,330,5,TRUE,FALSE,TRUE,,2
VN_03_01_0886,0,20,0,330,0,FALSE,FALSE,TRUE,,NA
VN_03_01_0472,0,20,0,330,0,FALSE,FALSE,TRUE,,NA
VN_03_01_0899,0,20,0,330,0,FALSE,FALSE,TRUE,,NA
VN_03_01_0467,0,20,0,330,0,FALSE,FALSE,TRUE,,NA
VN_03_01_0859,0,20,0,330,0,FALSE,FALSE,TRUE,,NA
VN_03_01_0848,0,20,0,330,0,FALSE,FALSE,TRUE,,NA
VN_03_01_0476,0,20,0,330,0,FALSE,FALSE,TRUE,,NA
VN_03_01_0856,0,20,2,330,0,TRUE,FALSE,TRUE,,1
VN_03_01_0875,0,20,4,330,0,TRUE,FALSE,TRUE,,1
VN_03_01_0479,0,20,2,330,4,TRUE,FALSE,TRUE,,1
VN_03_01_0428,0,20,0,330,0,FALSE,FALSE,TRUE,,NA
VN_03_01_0475,0,20,0,330,0,FALSE,FALSE,TRUE,,NA
VN_03_01_0466,0,20,4,330,0,TRUE,FALSE,TRUE,,1
VN_03_01_0453,1,20,1,330,0,TRUE,FALSE,TRUE,,2
VN_03_01_0422,0,20,0,330,0,FALSE,FALSE,TRUE,,NA
VN_03_01_0882,1,20,1,330,0,TRUE,FALSE,TRUE,,2
VN_03_01_0884,0,20,1,330,0,TRUE,FALSE,TRUE,,1
VN_03_01_0430,1,20,2,330,0,TRUE,FALSE,TRUE,,2
VN_03_01_0855,0,20,0,330,0,FALSE,FALSE,TRUE,,NA
VN_03_01_0450,0,20,0,330,0,FALSE,FALSE,TRUE,,NA
VN_03_01_0862,0,20,0,330,0,FALSE,FALSE,TRUE,,NA
VN_03_01_0471,0,20,5,330,20,TRUE,FALSE,TRUE,,1
VN_03_01_0896,0,20,10,330,0,TRUE,FALSE,TRUE,,1
VN_03_01_0423,0,20,0,330,0,FALSE,FALSE,TRUE,,NA
VN_03_01_0462,0,20,0,330,0,FALSE,FALSE,TRUE,,NA
VN_03_01_0851,0,20,0,330,0,FALSE,FALSE,TRUE,,NA
VN_03_01_0901,0,20,0,330,0,FALSE,FALSE,TRUE,,NA
VN_03_01_0909,0,20,0,330,0,FALSE,FALSE,TRUE,,NA
VN_03_01_0871,0,20,0,330,0,FALSE,FALSE,TRUE,,NA
VN_03_01_0458,0,20,0,330,0,FALSE,FALSE,TRUE,,NA
VN_03_01_0874,0,20,2,330,0,TRUE,FALSE,TRUE,,1
VN_03_01_0432,1,20,2,330,0,TRUE,FALSE,TRUE,,2
VN_03_01_0846,0,20,0,330,0,FALSE,FALSE,TRUE,,NA
VN_03_01_0446,0,20,0,330,0,FALSE,FALSE,TRUE,,NA
VN_03_01_0887,0,20,0,330,0,FALSE,FALSE,TRUE,,NA
VN_03_01_0449,0,20,2,330,2,TRUE,FALSE,TRUE,,1
VN_03_01_0844,0,20,10,330,0,TRUE,FALSE,TRUE,,1
VN_03_01_0858,0,20,0,330,0,FALSE,FALSE,TRUE,,NA
VN_03_01_0908,0,20,0,330,0,FALSE,FALSE,TRUE,,NA
VN_03_01_0845,0,20,1,330,0,TRUE,FALSE,TRUE,,1
VN_03_01_0477,0,20,0,330,0,FALSE,FALSE,TRUE,,NA
VN_03_01_0868,1,20,1,330,0,TRUE,FALSE,TRUE,,2
VN_03_01_0460,0,20,5,330,20,TRUE,FALSE,TRUE,,1
VN_03_01_0418,0,20,0,330,0,FALSE,FALSE,FALSE,,NA
VN_03_01_0464,0,20,0,330,0,FALSE,FALSE,TRUE,,NA
VN_03_01_0455,0,20,0,330,0,FALSE,FALSE,TRUE,,NA
VN_03_01_0860,0,20,1,330,0,TRUE,FALSE,TRUE,,1
VN_03_01_0439,3,20,5,330,0,TRUE,FALSE,TRUE,,2
VN_03_01_0854,0,20,0,330,0,FALSE,FALSE,TRUE,,NA
VN_03_01_0461,0,20,0,330,0,FALSE,FALSE,TRUE,,NA
VN_03_01_0434,0,20,0,330,0,FALSE,FALSE,TRUE,,NA
VN_03_00_0417,0,20,0,330,0,FALSE,TRUE,TRUE,thuốốc ngừa thai,NA
VN_03_00_0468,0,20,0,330,0,FALSE,FALSE,TRUE,,NA
VN_03_00_0907,0,20,0,330,0,FALSE,FALSE,TRUE,,NA
VN_03_00_0847,0,20,0,330,0,FALSE,FALSE,TRUE,,NA
VN_03_00_0865,0,20,0,330,0,FALSE,FALSE,TRUE,,NA
VN_03_00_0481,0,20,0,330,0,FALSE,FALSE,TRUE,,NA
VN_03_00_0474,0,20,0,330,0,FALSE,FALSE,TRUE,,NA
VN_03_00_0883,0,20,0,330,0,FALSE,TRUE,TRUE,ngừa thai cho con bú,NA
VN_03_00_0891,0,20,0,330,0,FALSE,TRUE,TRUE,ibutop, nexiicem mups
NA,NA,NA,NA,NA,NA,NA,NA,NA,NA,NA
VN_03_00_0459,0,20,0,330,0,FALSE,FALSE,TRUE,,NA
VN_03_00_0879,0,20,0,330,0,FALSE,FALSE,TRUE,,NA
VN_03_00_0451,0,20,0,330,0,FALSE,FALSE,TRUE,,NA
VN_03_00_0885,0,20,0,330,0,FALSE,FALSE,TRUE,,NA
VN_03_00_0480,0,20,0,330,0,FALSE,FALSE,TRUE,,NA
VN_03_00_0457,0,20,0,330,0,FALSE,FALSE,TRUE,,NA
VN_03_00_0443,0,20,0,330,0,FALSE,FALSE,FALSE,,NA
VN_03_01_0730,0,20,5,330,0,TRUE,FALSE,TRUE,,1
VN_03_01_0473,0,20,0,330,20,FALSE,FALSE,TRUE,,NA
VN_03_00_0550,0,20,0,330,0,FALSE,FALSE,TRUE,,NA
VN_02_01_0526,0,20,3,330,35,TRUE,FALSE,TRUE,,1
VN_02_01_0561,5,20,5,330,0,TRUE,FALSE,TRUE,,2
VN_02_01_0556,4,20,4,330,0,TRUE,FALSE,TRUE,,2
VN_02_01_0587,5,20,10,330,0,TRUE,FALSE,TRUE,,2
VN_02_01_0600,5,20,3,330,0,TRUE,FALSE,TRUE,,2
VN_02_01_0581,5,20,3,330,20,TRUE,FALSE,TRUE,,2
VN_02_01_0595,2,20,2,330,0,TRUE,FALSE,TRUE,,2
VN_02_00_0558,0,20,0,330,0,FALSE,FALSE,TRUE,,NA
VN_02_00_0528,0,20,0,330,0,FALSE,FALSE,TRUE,,NA
VN_02_00_0589,0,20,0,330,0,FALSE,FALSE,TRUE,,NA
VN_02_00_0508,0,20,0,330,0,FALSE,FALSE,TRUE,,NA
VN_02_00_0583,0,20,0,330,0,FALSE,FALSE,TRUE,,NA
VN_02_00_0596,0,20,0,330,0,FALSE,FALSE,TRUE,,NA
VN_02_01_0531,0,20,4,330,0,TRUE,FALSE,TRUE,,1
VN_03_00_0444,0,20,0,330,0,FALSE,FALSE,TRUE,,NA
VN_03_01_0454,0,20,5,330,0,TRUE,FALSE,TRUE,,1
VN_03_00_0482,0,20,0,330,0,FALSE,FALSE,TRUE,,NA
VN_03_00_0543,0,20,0,330,0,FALSE,FALSE,TRUE,,NA
VN_03_00_0733,0,20,0,330,0,FALSE,FALSE,TRUE,,NA
VN_02_00_0636,0,20,0,330,0,FALSE,FALSE,FALSE,,NA
VN_02_01_0648,0,20,20,330,0,TRUE,FALSE,TRUE,,1
VN_02_01_0649,3,20,4,330,0,TRUE,FALSE,TRUE,,2
VN_02_01_0647,0,20,6,330,0,TRUE,FALSE,TRUE,,1
VN_02_00_0642,0,20,0,330,0,FALSE,FALSE,TRUE,,NA
VN_02_00_0639,0,20,0,330,0,FALSE,FALSE,TRUE,,NA
VN_02_01_0650,0,20,2,330,0,TRUE,FALSE,TRUE,,1
VN_01_01_1014,0,20,0,330,0,FALSE,FALSE,TRUE,,NA
VN_02_00_0668,0,20,1,330,0,TRUE,FALSE,TRUE,,1
VN_02_00_0666,0,20,0,330,0,FALSE,FALSE,TRUE,,NA
VN_02_01_0663,0,20,0,330,0,FALSE,FALSE,TRUE,,NA
VN_03_00_0778,0,20,0,330,0,FALSE,FALSE,TRUE,,NA
VN_03_00_0692,0,20,0,330,0,FALSE,FALSE,TRUE,,NA
VN_03_00_0703,0,20,0,330,0,FALSE,FALSE,TRUE,,NA
VN_01_01_0922,0,20,3,330,0,TRUE,FALSE,TRUE,,1
VN_03_01_0744,0,20,5,330,0,TRUE,FALSE,TRUE,,1
VN_03_01_0760,0,20,2,330,0,TRUE,FALSE,TRUE,,1
VN_03_01_1021,0,20,0,330,0,FALSE,FALSE,TRUE,,NA
VN_03_01_0747,0,20,0,330,0,FALSE,FALSE,TRUE,,NA
VN_03_01_0757,0,20,1,330,0,TRUE,FALSE,TRUE,,1
VN_03_00_0762,0,20,0,330,0,FALSE,FALSE,TRUE,,NA
VN_03_00_0767,0,20,0,330,0,FALSE,FALSE,TRUE,,NA
VN_03_00_0764,0,20,0,330,0,FALSE,FALSE,TRUE,,NA
VN_03_00_0746,0,20,0,330,0,FALSE,FALSE,TRUE,,NA
VN_03_00_0748,0,20,0,330,0,FALSE,FALSE,TRUE,,NA
VN_03_00_0755,0,20,0,330,0,FALSE,FALSE,TRUE,,NA
VN_03_00_0761,0,20,0,330,0,FALSE,FALSE,TRUE,,NA
VN_03_00_0749,0,20,0,330,0,FALSE,FALSE,TRUE,,NA
VN_03_00_0765,0,20,0,330,0,FALSE,FALSE,TRUE,,NA
VN_03_00_0768,0,20,0,330,0,FALSE,FALSE,TRUE,,NA
VN_03_00_0759,0,20,0,330,0,FALSE,FALSE,TRUE,,NA
VN_03_00_1023,0,20,0,330,0,FALSE,FALSE,TRUE,,NA
VN_03_00_0756,0,20,0,330,0,FALSE,FALSE,TRUE,,NA
VN_03_00_0754,0,20,0,330,0,FALSE,FALSE,TRUE,,NA
VN_03_00_0766,0,20,0,330,0,FALSE,FALSE,TRUE,,NA
VN_03_00_0763,0,20,0,330,0,FALSE,FALSE,TRUE,,NA
VN_03_00_0758,0,20,0,330,0,FALSE,FALSE,TRUE,,NA
VN_03_00_0752,0,20,0,330,0,FALSE,FALSE,TRUE,,NA
VN_03_00_0789,0,20,0,330,0,FALSE,FALSE,TRUE,,NA
VN_03_00_0790,0,20,0,330,0,FALSE,FALSE,TRUE,,NA
VN_03_00_0788,0,20,0,330,0,FALSE,FALSE,TRUE,,NA
VN_03_00_0786,0,20,0,330,0,FALSE,FALSE,TRUE,,NA
VN_03_01_0824,0,20,0,330,0,FALSE,FALSE,TRUE,,NA
VN_03_01_0863,0,20,2,330,0,TRUE,FALSE,TRUE,,1
VN_03_01_1052,0,20,0,330,0,FALSE,FALSE,TRUE,,NA
VN_03_01_0849,0,20,0,330,0,FALSE,FALSE,TRUE,,NA
VN_03_01_1051,0,20,0,330,0,FALSE,FALSE,TRUE,,NA
VN_03_01_1007,0,20,5,330,0,TRUE,FALSE,TRUE,,1
VN_03_01_0944,0,20,2,330,0,TRUE,FALSE,TRUE,,1
VN_03_00_0991,0,20,0,330,0,FALSE,FALSE,TRUE,,NA
VN_03_01_1079,0,20,1,330,0,TRUE,FALSE,TRUE,,1
VN_03_01_1062,0,20,0,330,0,FALSE,FALSE,FALSE,,NA
VN_03_01_1076,0,20,0,330,0,FALSE,FALSE,TRUE,,NA
VN_03_01_1077,0,20,0,330,0,FALSE,FALSE,FALSE,,NA
VN_03_00_1053,0,20,0,330,0,FALSE,FALSE,TRUE,,NA
VN_01_01_1011,1,20,1,330,0,TRUE,FALSE,TRUE,,2
VN_01_01_1069,1,20,1,330,0,TRUE,FALSE,TRUE,,2
VN_01_01_1071,0,20,0,330,0,FALSE,FALSE,TRUE,,NA
VN_01_01_1067,0,20,0,330,20,FALSE,FALSE,TRUE,,NA
VN_01_01_1104,0,20,0,330,0,FALSE,FALSE,TRUE,,NA
VN_03_01_0781,0,20,1,330,0,TRUE,FALSE,TRUE,,1
VN_03_01_0782,0,20,0,330,0,FALSE,FALSE,TRUE,,NA
VN_03_00_0785,0,20,0,330,0,FALSE,FALSE,TRUE,,NA
VN_03_01_0780,0,20,1,330,0,TRUE,FALSE,TRUE,,1
VN_03_01_0784,0,20,0,330,0,FALSE,FALSE,TRUE,,NA
VN_03_01_1063,1,20,1,330,0,TRUE,FALSE,TRUE,,2
VN_03_01_1066,0,20,2,330,0,TRUE,FALSE,TRUE,,1
VN_03_01_1065,0,20,1,330,10,TRUE,FALSE,TRUE,,1
VN_03_01_1061,0,20,2,330,0,TRUE,FALSE,TRUE,,1
VN_03_01_0989,10,20,5,330,0,TRUE,FALSE,TRUE,,2
VN_03_01_0993,0,20,2,330,0,TRUE,FALSE,TRUE,,1
VN_03_01_0976,1,20,1,330,0,TRUE,FALSE,TRUE,,2
VN_03_01_0943,0,20,0,330,20,FALSE,TRUE,TRUE,an trĩ vương,NA
VN_03_01_0994,5,20,5,330,5,TRUE,FALSE,TRUE,,2
VN_03_01_0950,0,20,2,330,0,TRUE,FALSE,TRUE,,1
VN_03_01_0959,0,20,1,330,0,TRUE,FALSE,TRUE,,1
VN_03_01_0934,1,20,1,330,0,TRUE,FALSE,TRUE,,2
VN_03_01_0937,0,20,4,330,0,TRUE,FALSE,TRUE,,1
VN_03_01_0929,0,20,0,330,0,FALSE,FALSE,TRUE,,NA
VN_03_00_0941,0,20,0,330,0,FALSE,FALSE,TRUE,,NA
VN_03_00_0957,0,20,0,330,0,FALSE,FALSE,TRUE,,NA
VN_03_00_0992,0,20,0,330,0,FALSE,FALSE,TRUE,,NA
VN_03_00_0955,0,20,0,330,0,FALSE,FALSE,TRUE,,NA
VN_03_00_0947,0,20,0,330,0,FALSE,FALSE,TRUE,,NA
VN_03_00_0978,0,20,0,330,0,FALSE,FALSE,TRUE,,NA
VN_03_00_0931,0,20,0,330,0,FALSE,FALSE,TRUE,,NA
VN_03_00_0952,0,20,0,330,0,FALSE,FALSE,TRUE,,NA
VN_03_00_0946,0,20,0,330,0,FALSE,FALSE,FALSE,,NA
VN_03_00_0956,0,20,0,330,0,FALSE,FALSE,TRUE,,NA
VN_03_00_0928,0,20,0,330,0,FALSE,FALSE,TRUE,,NA
VN_03_00_0977,0,20,0,330,0,FALSE,FALSE,TRUE,,NA
VN_03_00_0936,0,20,0,330,0,FALSE,FALSE,TRUE,,NA
VN_03_00_0958,0,20,0,330,0,FALSE,FALSE,TRUE,,NA
VN_03_00_0933,0,20,0,330,0,FALSE,TRUE,TRUE,thuốc bổ đông y,NA
VN_03_00_0948,0,20,0,330,0,FALSE,FALSE,TRUE,,NA
VN_03_00_0939,0,20,0,330,0,FALSE,FALSE,TRUE,,NA
VN_03_01_0792,0,20,0,330,0,FALSE,FALSE,TRUE,,NA
VN_03_00_0551,0,20,0,330,0,FALSE,FALSE,FALSE,,NA
